數位邏輯/4bit_counter/dump.vcd
$date
	Mon Sep 16 20:59:17 2024
$end
$version
	Icarus Verilog
$end
$timescale
	1s
$end
$scope module t_Problem_6_58a $end
$var wire 4 ! value [3:0] $end
$var wire 4 " Par_word [3:0] $end
$var wire 1 # C_out $end
$var wire 1 $ A3 $end
$var wire 1 % A2 $end
$var wire 1 & A1 $end
$var wire 1 ' A0 $end
$var reg 1 ( CLK $end
$var reg 1 ) Clear_b $end
$var reg 1 * Count $end
$var reg 1 + I0 $end
$var reg 1 , I1 $end
$var reg 1 - I2 $end
$var reg 1 . I3 $end
$var reg 1 / Load $end
$scope module M0 $end
$var wire 1 ( CLK $end
$var wire 1 # C_out $end
$var wire 1 ) Clear_b $end
$var wire 1 * Count $end
$var wire 1 + I0 $end
$var wire 1 0 I0_bar $end
$var wire 1 , I1 $end
$var wire 1 1 I1_bar $end
$var wire 1 - I2 $end
$var wire 1 2 I2_bar $end
$var wire 1 . I3 $end
$var wire 1 3 I3_bar $end
$var wire 1 / Load $end
$var wire 1 4 Load_bar $end
$var wire 1 5 w0 $end
$var wire 1 6 w1 $end
$var wire 1 7 w10 $end
$var wire 1 8 w11 $end
$var wire 1 9 w12 $end
$var wire 1 : w13 $end
$var wire 1 ; w14 $end
$var wire 1 < w15 $end
$var wire 1 = w16 $end
$var wire 1 > w17 $end
$var wire 1 ? w18 $end
$var wire 1 @ w19 $end
$var wire 1 A w2 $end
$var wire 1 B w3 $end
$var wire 1 C w4 $end
$var wire 1 D w5 $end
$var wire 1 E w6 $end
$var wire 1 F w7 $end
$var wire 1 G w8 $end
$var wire 1 H w9 $end
$var wire 1 $ A3 $end
$var wire 1 % A2 $end
$var wire 1 & A1 $end
$var wire 1 ' A0 $end
$scope module M0 $end
$var wire 1 ( C $end
$var wire 1 ) Clear_b $end
$var wire 1 H J_in $end
$var wire 1 7 K_in $end
$var reg 1 ' Q $end
$upscope $end
$scope module M1 $end
$var wire 1 ( C $end
$var wire 1 ) Clear_b $end
$var wire 1 8 J_in $end
$var wire 1 9 K_in $end
$var reg 1 & Q $end
$upscope $end
$scope module M2 $end
$var wire 1 ( C $end
$var wire 1 ) Clear_b $end
$var wire 1 : J_in $end
$var wire 1 ; K_in $end
$var reg 1 % Q $end
$upscope $end
$scope module M3 $end
$var wire 1 ( C $end
$var wire 1 ) Clear_b $end
$var wire 1 < J_in $end
$var wire 1 = K_in $end
$var reg 1 $ Q $end
$upscope $end
$upscope $end
$upscope $end
$enddefinitions $end
$comment Show the parameter values. $end
$dumpall
$end
#0
$dumpvars
0H
0G
0F
0E
0D
0C
0B
0A
0@
0?
0>
0=
0<
0;
0:
09
08
07
06
05
14
13
02
11
00
0/
0.
1-
0,
1+
0*
0)
0(
x'
x&
x%
x$
0#
b101 "
bx !
$end
#5
0'
0&
0%
b0 !
0$
1(
#10
0(
#15
1(
#20
0(
1)
#25
1(
#30
0(
#35
1(
#40
0(
#45
1(
#50
1H
17
15
0(
1*
#55
18
19
1>
b1 !
1'
1(
#60
0(
#65
08
09
0>
0'
b10 !
1&
1(
#70
0(
#75
1:
1;
18
19
1?
1>
b11 !
1'
1(
#80
0(
#85
08
09
0:
0;
0>
0?
0'
0&
b100 !
1%
1(
#90
0(
#95
18
19
1>
b101 !
1'
1(
#100
0(
#105
08
09
0>
0'
b110 !
1&
1(
#110
0(
#115
1<
1=
1:
1;
18
19
1@
1?
1>
b111 !
1'
1(
#120
0(
#125
08
09
0:
0;
0<
0=
0>
0?
0@
0'
0&
0%
b1000 !
1$
1(
#130
0(
#135
18
19
1>
b1001 !
1'
1(
#140
0(
#145
08
09
0>
0'
b1010 !
1&
1(
#150
0H
07
05
0(
0*
#155
1(
#160
0(
#165
1(
#170
0(
#175
1(
#180
0(
#185
1(
#190
0(
#195
1(
#200
1H
17
15
0(
1*
#205
1:
1;
18
19
1?
1>
b1011 !
1'
1(
#210
0(
#215
0:
0;
08
09
0?
0>
1%
0&
b1100 !
0'
1(
#220
0(
#225
18
19
1>
b1101 !
1'
1(
#230
0(
#235
08
09
0>
1&
b1110 !
0'
1(
#240
0(
#245
1#
1<
1=
1:
1;
18
19
1@
1?
1>
b1111 !
1'
1(
#250
08
0;
0<
0#
0>
0?
0@
07
05
04
16
1C
1D
1G
0(
1/
#255
0$
b101 !
0&
1(
#260
18
1>
17
15
1H
19
0:
0=
14
06
0C
0D
0G
0(
0/
#265
08
09
0>
0'
b110 !
1&
1(
#270
0(
#275
1<
1=
1:
1;
18
19
1@
1?
1>
b111 !
1'
1(
#280
0(
#285
08
09
0:
0;
0<
0=
0>
0?
0@
0'
0&
0%
b1000 !
1$
1(
#290
0(
#295
18
19
1>
b1001 !
1'
1(
#300
0(
#305
08
09
0>
0'
b1010 !
1&
1(
#310
0(
#315
1:
1;
18
19
1?
1>
b1011 !
1'
1(
#320
0(
#325
08
09
0:
0;
0>
0?
0'
0&
b1100 !
1%
1(
#330
0(
#335
18
19
1>
b1101 !
1'
1(
#340
0(
#345
08
09
0>
0'
b1110 !
1&
1(
#350
0(
#355
1#
1<
1=
1:
1;
18
19
1@
1?
1>
b1111 !
1'
1(
#360
0(
#365
08
09
0:
0;
0<
0=
0#
0>
0?
0@
0'
0&
0%
b0 !
0$
1(
#370
0(
#375
18
19
1>
b1 !
1'
1(
#380
0(
#385
08
09
0>
0'
b10 !
1&
1(
#390
0(
#395
1:
1;
18
19
1?
1>
b11 !
1'
1(
