數位邏輯/2nd_exam/build/dump.vcd
$date
	Mon Sep 16 21:10:07 2024
$end
$version
	Icarus Verilog
$end
$timescale
	1s
$end
$scope module test $end
$var wire 1 ! B3 $end
$var wire 1 " B2 $end
$var wire 1 # B1 $end
$var wire 1 $ B0 $end
$var wire 4 % A [3:0] $end
$var reg 1 & Down $end
$var reg 1 ' Up $end
$var reg 1 ( clk $end
$var reg 1 ) reset $end
$scope module M0 $end
$var wire 1 & Down $end
$var wire 1 ' Up $end
$var wire 1 ( clk $end
$var wire 1 ) reset $end
$var wire 1 * w1 $end
$var wire 1 + w10 $end
$var wire 1 , w11 $end
$var wire 1 - w2 $end
$var wire 1 . w3 $end
$var wire 1 / w4 $end
$var wire 1 0 w5 $end
$var wire 1 1 w6 $end
$var wire 1 2 w7 $end
$var wire 1 3 w8 $end
$var wire 1 4 w9 $end
$var wire 1 ! A3 $end
$var wire 1 " A2 $end
$var wire 1 # A1 $end
$var wire 1 $ A0 $end
$scope module M0 $end
$var wire 1 - T $end
$var wire 1 ( clk $end
$var wire 1 ) reset $end
$var reg 1 $ Q $end
$upscope $end
$scope module M1 $end
$var wire 1 0 T $end
$var wire 1 ( clk $end
$var wire 1 ) reset $end
$var reg 1 # Q $end
$upscope $end
$scope module M2 $end
$var wire 1 3 T $end
$var wire 1 ( clk $end
$var wire 1 ) reset $end
$var reg 1 " Q $end
$upscope $end
$scope module M3 $end
$var wire 1 , T $end
$var wire 1 ( clk $end
$var wire 1 ) reset $end
$var reg 1 ! Q $end
$upscope $end
$upscope $end
$upscope $end
$enddefinitions $end
$comment Show the parameter values. $end
$dumpall
$end
#0
$dumpvars
04
03
02
01
00
0/
0.
0-
0,
0+
0*
x)
1(
0'
0&
bx %
x$
x#
x"
x!
$end
#5
0(
#10
0!
0"
0#
b0 %
0$
1(
0)
#15
0(
#20
1(
1)
#25
0(
#30
1(
#35
0(
#40
10
1/
b1 %
1$
1-
1(
1'
#45
0(
#50
00
0/
1#
b10 %
0$
1(
#55
0(
#60
13
10
12
1/
b11 %
1$
1(
#65
0(
#70
03
00
02
0/
1"
0#
b100 %
0$
1(
#75
0(
#80
10
1/
b101 %
1$
1(
#85
0(
#90
00
0/
1#
b110 %
0$
1(
#95
0(
#100
1,
13
1+
10
12
1/
b111 %
1$
1(
#105
0(
#110
0,
03
00
0+
02
0/
1!
0"
0#
b1000 %
0$
1(
#115
0(
#120
10
1/
b1001 %
1$
1(
#125
0(
#130
00
0/
1#
b1010 %
0$
1(
#135
0(
#140
13
10
12
1/
b1011 %
1$
1(
#145
0(
#150
03
00
02
0/
1"
0#
b1100 %
0$
1(
1&
#155
0(
#160
10
1/
b1101 %
1$
1(
#165
0(
#170
00
0/
1#
b1110 %
0$
1(
#175
0(
#180
1,
13
1+
10
12
1/
b1111 %
1$
1(
#185
0(
#190
0,
03
00
0+
02
0/
0!
0"
0#
b0 %
0$
1(
#195
0(
#200
b1 %
1$
0,
03
04
00
01
0.
1*
1(
0'
#205
0(
#210
1,
13
14
10
11
1.
b0 %
0$
1(
#215
0(
#220
00
03
0,
0.
01
04
1$
1#
1"
b1111 %
1!
1(
#225
0(
#230
10
1.
b1110 %
0$
1(
#235
0(
#240
00
03
0.
01
1$
b1101 %
0#
1(
#245
0(
#250
b1100 %
0$
0-
0*
1(
0&
